module github.com/elastic/terraform-provider-elasticstack/tools

go 1.19

require (
	github.com/client9/misspell v0.3.4
	github.com/golangci/golangci-lint v1.49.0
	github.com/goreleaser/goreleaser v1.1.0
	github.com/hashicorp/terraform-plugin-docs v0.5.1
)

require (
	4d63.com/gochecknoglobals v0.1.0 // indirect
	cloud.google.com/go v0.102.1 // indirect
	cloud.google.com/go/compute v1.7.0 // indirect
	cloud.google.com/go/iam v0.4.0 // indirect
	cloud.google.com/go/kms v0.1.0 // indirect
	cloud.google.com/go/storage v1.22.1 // indirect
	code.gitea.io/sdk/gitea v0.15.0 // indirect
	github.com/AlekSi/pointer v1.2.0 // indirect
	github.com/Antonboom/errname v0.1.7 // indirect
	github.com/Antonboom/nilnil v0.1.1 // indirect
	github.com/Azure/azure-pipeline-go v0.2.3 // indirect
	github.com/Azure/azure-sdk-for-go v57.0.0+incompatible // indirect
	github.com/Azure/azure-storage-blob-go v0.14.0 // indirect
	github.com/Azure/go-autorest v14.2.0+incompatible // indirect
	github.com/Azure/go-autorest/autorest v0.11.20 // indirect
	github.com/Azure/go-autorest/autorest/adal v0.9.15 // indirect
	github.com/Azure/go-autorest/autorest/azure/auth v0.5.8 // indirect
	github.com/Azure/go-autorest/autorest/azure/cli v0.4.3 // indirect
	github.com/Azure/go-autorest/autorest/date v0.3.0 // indirect
	github.com/Azure/go-autorest/autorest/to v0.4.0 // indirect
	github.com/Azure/go-autorest/autorest/validation v0.3.1 // indirect
	github.com/Azure/go-autorest/logger v0.2.1 // indirect
	github.com/Azure/go-autorest/tracing v0.6.0 // indirect
	github.com/BurntSushi/toml v1.2.0 // indirect
	github.com/DisgoOrg/disgohook v1.4.3 // indirect
	github.com/DisgoOrg/log v1.1.0 // indirect
	github.com/DisgoOrg/restclient v1.2.7 // indirect
	github.com/Djarvur/go-err113 v0.0.0-20210108212216-aea10b59be24 // indirect
	github.com/GaijinEntertainment/go-exhaustruct/v2 v2.3.0 // indirect
	github.com/Masterminds/goutils v1.1.1 // indirect
	github.com/Masterminds/semver v1.5.0 // indirect
	github.com/Masterminds/semver/v3 v3.1.1 // indirect
	github.com/Masterminds/sprig v2.22.0+incompatible // indirect
	github.com/Microsoft/go-winio v0.5.0 // indirect
	github.com/OpenPeeDeeP/depguard v1.1.0 // indirect
	github.com/ProtonMail/go-crypto v0.0.0-20210512092938-c05353c2d58c // indirect
	github.com/acomagu/bufpipe v1.0.3 // indirect
	github.com/alecthomas/jsonschema v0.0.0-20211022214203-8b29eab41725 // indirect
	github.com/alexkohler/prealloc v1.0.0 // indirect
	github.com/alingse/asasalint v0.0.11 // indirect
	github.com/apex/log v1.9.0 // indirect
	github.com/armon/go-radix v0.0.0-20180808171621-7fddfc383310 // indirect
	github.com/ashanbrown/forbidigo v1.3.0 // indirect
	github.com/ashanbrown/makezero v1.1.1 // indirect
	github.com/atc0005/go-teams-notify/v2 v2.6.0 // indirect
	github.com/aws/aws-sdk-go v1.40.34 // indirect
	github.com/aws/aws-sdk-go-v2 v1.9.0 // indirect
	github.com/aws/aws-sdk-go-v2/config v1.7.0 // indirect
	github.com/aws/aws-sdk-go-v2/credentials v1.4.0 // indirect
	github.com/aws/aws-sdk-go-v2/feature/ec2/imds v1.5.0 // indirect
	github.com/aws/aws-sdk-go-v2/internal/ini v1.2.2 // indirect
	github.com/aws/aws-sdk-go-v2/service/internal/presigned-url v1.3.0 // indirect
	github.com/aws/aws-sdk-go-v2/service/kms v1.5.0 // indirect
	github.com/aws/aws-sdk-go-v2/service/sso v1.4.0 // indirect
	github.com/aws/aws-sdk-go-v2/service/sts v1.7.0 // indirect
	github.com/aws/smithy-go v1.8.0 // indirect
	github.com/beorn7/perks v1.0.1 // indirect
	github.com/bgentry/go-netrc v0.0.0-20140422174119-9fd32a8b3d3d // indirect
	github.com/bgentry/speakeasy v0.1.0 // indirect
	github.com/bkielbasa/cyclop v1.2.0 // indirect
	github.com/blakesmith/ar v0.0.0-20190502131153-809d4375e1fb // indirect
	github.com/blizzy78/varnamelen v0.8.0 // indirect
	github.com/bombsimon/wsl/v3 v3.3.0 // indirect
	github.com/breml/bidichk v0.2.3 // indirect
	github.com/breml/errchkjson v0.3.0 // indirect
	github.com/butuzov/ireturn v0.1.1 // indirect
	github.com/caarlos0/ctrlc v1.0.0 // indirect
	github.com/caarlos0/env/v6 v6.7.0 // indirect
	github.com/caarlos0/go-shellwords v1.0.12 // indirect
	github.com/cavaliercoder/go-cpio v0.0.0-20180626203310-925f9528c45e // indirect
	github.com/cenkalti/backoff v2.1.1+incompatible // indirect
	github.com/cespare/xxhash/v2 v2.1.2 // indirect
	github.com/charithe/durationcheck v0.0.9 // indirect
	github.com/chavacava/garif v0.0.0-20220630083739-93517212f375 // indirect
	github.com/cpuguy83/go-md2man/v2 v2.0.2 // indirect
	github.com/curioswitch/go-reassign v0.1.2 // indirect
	github.com/daixiang0/gci v0.6.3 // indirect
	github.com/davecgh/go-spew v1.1.1 // indirect
	github.com/denis-tingaikin/go-header v0.4.3 // indirect
	github.com/dghubble/go-twitter v0.0.0-20210609183100-2fdbf421508e // indirect
	github.com/dghubble/oauth1 v0.7.0 // indirect
	github.com/dghubble/sling v1.3.0 // indirect
	github.com/dimchansky/utfbom v1.1.1 // indirect
	github.com/emirpasic/gods v1.12.0 // indirect
	github.com/esimonov/ifshort v1.0.4 // indirect
	github.com/ettle/strcase v0.1.1 // indirect
	github.com/fatih/color v1.13.0 // indirect
	github.com/fatih/structtag v1.2.0 // indirect
	github.com/firefart/nonamedreturns v1.0.4 // indirect
	github.com/fsnotify/fsnotify v1.5.4 // indirect
	github.com/fzipp/gocyclo v0.6.0 // indirect
	github.com/go-critic/go-critic v0.6.4 // indirect
	github.com/go-git/gcfg v1.5.0 // indirect
	github.com/go-git/go-billy/v5 v5.3.1 // indirect
	github.com/go-git/go-git/v5 v5.4.2 // indirect
	github.com/go-telegram-bot-api/telegram-bot-api v4.6.4+incompatible // indirect
	github.com/go-toolsmith/astcast v1.0.0 // indirect
	github.com/go-toolsmith/astcopy v1.0.1 // indirect
	github.com/go-toolsmith/astequal v1.0.2 // indirect
	github.com/go-toolsmith/astfmt v1.0.0 // indirect
	github.com/go-toolsmith/astp v1.0.0 // indirect
	github.com/go-toolsmith/strparse v1.0.0 // indirect
	github.com/go-toolsmith/typep v1.0.2 // indirect
	github.com/go-xmlfmt/xmlfmt v0.0.0-20191208150333-d5b6f63a941b // indirect
	github.com/gobwas/glob v0.2.3 // indirect
	github.com/gofrs/flock v0.8.1 // indirect
	github.com/golang-jwt/jwt/v4 v4.0.0 // indirect
	github.com/golang/groupcache v0.0.0-20210331224755-41bb18bfe9da // indirect
	github.com/golang/protobuf v1.5.2 // indirect
	github.com/golangci/check v0.0.0-20180506172741-cfe4005ccda2 // indirect
	github.com/golangci/dupl v0.0.0-20180902072040-3e9179ac440a // indirect
	github.com/golangci/go-misc v0.0.0-20220329215616-d24fe342adfe // indirect
	github.com/golangci/gofmt v0.0.0-20190930125516-244bba706f1a // indirect
	github.com/golangci/lint-1 v0.0.0-20191013205115-297bf364a8e0 // indirect
	github.com/golangci/maligned v0.0.0-20180506175553-b1d89398deca // indirect
	github.com/golangci/misspell v0.3.5 // indirect
	github.com/golangci/revgrep v0.0.0-20220804021717-745bb2f7c2e6 // indirect
	github.com/golangci/unconvert v0.0.0-20180507085042-28b1c447d1f4 // indirect
	github.com/google/go-cmp v0.5.8 // indirect
	github.com/google/go-github/v39 v39.2.0 // indirect
	github.com/google/go-querystring v1.1.0 // indirect
	github.com/google/rpmpack v0.0.0-20210518075352-dc539ef4f2ea // indirect
	github.com/google/uuid v1.3.0 // indirect
	github.com/google/wire v0.5.0 // indirect
	github.com/googleapis/enterprise-certificate-proxy v0.1.0 // indirect
	github.com/googleapis/gax-go/v2 v2.4.0 // indirect
	github.com/googleapis/go-type-adapters v1.0.0 // indirect
	github.com/gordonklaus/ineffassign v0.0.0-20210914165742-4cc7213b9bc8 // indirect
	github.com/goreleaser/chglog v0.1.2 // indirect
	github.com/goreleaser/fileglob v1.2.0 // indirect
	github.com/goreleaser/nfpm/v2 v2.10.0 // indirect
	github.com/gorilla/websocket v1.4.2 // indirect
	github.com/gostaticanalysis/analysisutil v0.7.1 // indirect
	github.com/gostaticanalysis/comment v1.4.2 // indirect
	github.com/gostaticanalysis/forcetypeassert v0.1.0 // indirect
	github.com/gostaticanalysis/nilerr v0.1.1 // indirect
	github.com/hashicorp/errwrap v1.0.0 // indirect
	github.com/hashicorp/go-checkpoint v0.5.0 // indirect
	github.com/hashicorp/go-cleanhttp v0.5.2 // indirect
	github.com/hashicorp/go-getter v1.5.3 // indirect
	github.com/hashicorp/go-multierror v1.1.1 // indirect
	github.com/hashicorp/go-retryablehttp v0.6.8 // indirect
	github.com/hashicorp/go-safetemp v1.0.0 // indirect
	github.com/hashicorp/go-uuid v1.0.1 // indirect
	github.com/hashicorp/go-version v1.6.0 // indirect
	github.com/hashicorp/hcl v1.0.0 // indirect
	github.com/hashicorp/terraform-exec v0.15.0 // indirect
	github.com/hashicorp/terraform-json v0.13.0 // indirect
	github.com/hexops/gotextdiff v1.0.3 // indirect
	github.com/huandu/xstrings v1.3.2 // indirect
	github.com/iancoleman/orderedmap v0.2.0 // indirect
	github.com/imdario/mergo v0.3.12 // indirect
	github.com/inconshreveable/mousetrap v1.0.0 // indirect
	github.com/jbenet/go-context v0.0.0-20150711004518-d14ea06fba99 // indirect
	github.com/jgautheron/goconst v1.5.1 // indirect
	github.com/jingyugao/rowserrcheck v1.1.1 // indirect
	github.com/jirfag/go-printf-func-name v0.0.0-20200119135958-7558a9eaa5af // indirect
	github.com/jmespath/go-jmespath v0.4.0 // indirect
	github.com/julz/importas v0.1.0 // indirect
	github.com/kevinburke/ssh_config v1.1.0 // indirect
	github.com/kisielk/errcheck v1.6.2 // indirect
	github.com/kisielk/gotool v1.0.0 // indirect
	github.com/klauspost/compress v1.13.5 // indirect
	github.com/kulti/thelper v0.6.3 // indirect
	github.com/kunwardeep/paralleltest v1.0.6 // indirect
	github.com/kyoh86/exportloopref v0.1.8 // indirect
	github.com/ldez/gomoddirectives v0.2.3 // indirect
	github.com/ldez/tagliatelle v0.3.1 // indirect
	github.com/leonklingele/grouper v1.1.0 // indirect
	github.com/lufeee/execinquery v1.2.1 // indirect
	github.com/magiconair/properties v1.8.6 // indirect
	github.com/maratori/testpackage v1.1.0 // indirect
	github.com/matoous/godox v0.0.0-20210227103229-6504466cf951 // indirect
	github.com/mattn/go-colorable v0.1.13 // indirect
	github.com/mattn/go-ieproxy v0.0.1 // indirect
	github.com/mattn/go-isatty v0.0.16 // indirect
	github.com/mattn/go-runewidth v0.0.9 // indirect
	github.com/matttproud/golang_protobuf_extensions v1.0.1 // indirect
	github.com/mbilski/exhaustivestruct v1.2.0 // indirect
	github.com/mgechev/revive v1.2.3 // indirect
	github.com/mitchellh/cli v1.1.2 // indirect
	github.com/mitchellh/copystructure v1.2.0 // indirect
	github.com/mitchellh/go-homedir v1.1.0 // indirect
	github.com/mitchellh/go-testing-interface v1.0.0 // indirect
	github.com/mitchellh/mapstructure v1.5.0 // indirect
	github.com/mitchellh/reflectwalk v1.0.2 // indirect
	github.com/moricho/tparallel v0.2.1 // indirect
	github.com/nakabonne/nestif v0.3.1 // indirect
	github.com/nbutton23/zxcvbn-go v0.0.0-20210217022336-fa2cb2858354 // indirect
	github.com/nishanths/exhaustive v0.8.1 // indirect
	github.com/nishanths/predeclared v0.2.2 // indirect
	github.com/olekukonko/tablewriter v0.0.5 // indirect
	github.com/pelletier/go-toml v1.9.5 // indirect
	github.com/pelletier/go-toml/v2 v2.0.2 // indirect
	github.com/phayes/checkstyle v0.0.0-20170904204023-bfd46e6a821d // indirect
	github.com/pkg/errors v0.9.1 // indirect
	github.com/pmezard/go-difflib v1.0.0 // indirect
	github.com/polyfloyd/go-errorlint v1.0.2 // indirect
	github.com/posener/complete v1.1.1 // indirect
	github.com/prometheus/client_golang v1.12.1 // indirect
	github.com/prometheus/client_model v0.2.0 // indirect
	github.com/prometheus/common v0.32.1 // indirect
	github.com/prometheus/procfs v0.7.3 // indirect
	github.com/quasilyte/go-ruleguard v0.3.17 // indirect
	github.com/quasilyte/gogrep v0.0.0-20220120141003-628d8b3623b5 // indirect
	github.com/quasilyte/regex/syntax v0.0.0-20200407221936-30656e2c4a95 // indirect
	github.com/quasilyte/stdinfo v0.0.0-20220114132959-f7386bf02567 // indirect
	github.com/russross/blackfriday v1.6.0 // indirect
	github.com/russross/blackfriday/v2 v2.1.0 // indirect
	github.com/ryancurrah/gomodguard v1.2.4 // indirect
	github.com/ryanrolds/sqlclosecheck v0.3.0 // indirect
	github.com/sanposhiho/wastedassign/v2 v2.0.6 // indirect
	github.com/sashamelentyev/interfacebloat v1.1.0 // indirect
	github.com/sashamelentyev/usestdlibvars v1.13.0 // indirect
	github.com/securego/gosec/v2 v2.13.1 // indirect
	github.com/sergi/go-diff v1.2.0 // indirect
	github.com/shazow/go-diff v0.0.0-20160112020656-b6b7b6733b8c // indirect
	github.com/sirupsen/logrus v1.9.0 // indirect
	github.com/sivchari/containedctx v1.0.2 // indirect
	github.com/sivchari/nosnakecase v1.7.0 // indirect
	github.com/sivchari/tenv v1.7.0 // indirect
	github.com/slack-go/slack v0.9.4 // indirect
	github.com/sonatard/noctx v0.0.1 // indirect
	github.com/sourcegraph/go-diff v0.6.1 // indirect
	github.com/spf13/afero v1.8.2 // indirect
	github.com/spf13/cast v1.5.0 // indirect
	github.com/spf13/cobra v1.5.0 // indirect
	github.com/spf13/jwalterweatherman v1.1.0 // indirect
	github.com/spf13/pflag v1.0.5 // indirect
	github.com/spf13/viper v1.12.0 // indirect
	github.com/ssgreg/nlreturn/v2 v2.2.1 // indirect
	github.com/stbenjam/no-sprintf-host-port v0.1.1 // indirect
	github.com/stretchr/objx v0.4.0 // indirect
	github.com/stretchr/testify v1.8.0 // indirect
	github.com/subosito/gotenv v1.4.0 // indirect
	github.com/sylvia7788/contextcheck v1.0.6 // indirect
	github.com/tdakkota/asciicheck v0.1.1 // indirect
	github.com/technoweenie/multipartstreamer v1.0.1 // indirect
	github.com/tetafro/godot v1.4.11 // indirect
	github.com/timakin/bodyclose v0.0.0-20210704033933-f49887972144 // indirect
	github.com/timonwong/logrlint v0.1.0 // indirect
	github.com/tomarrell/wrapcheck/v2 v2.6.2 // indirect
	github.com/tommy-muehle/go-mnd/v2 v2.5.0 // indirect
	github.com/ulikunitz/xz v0.5.10 // indirect
	github.com/ultraware/funlen v0.0.3 // indirect
	github.com/ultraware/whitespace v0.0.5 // indirect
	github.com/uudashr/gocognit v1.0.6 // indirect
	github.com/vartanbeno/go-reddit/v2 v2.0.0 // indirect
	github.com/xanzy/go-gitlab v0.50.3 // indirect
	github.com/xanzy/ssh-agent v0.3.1 // indirect
	github.com/yagipy/maintidx v1.0.0 // indirect
	github.com/yeya24/promlinter v0.2.0 // indirect
	github.com/zclconf/go-cty v1.10.0 // indirect
	gitlab.com/bosi/decorder v0.2.3 // indirect
	go.opencensus.io v0.23.0 // indirect
	go.uber.org/atomic v1.9.0 // indirect
	go.uber.org/multierr v1.7.0 // indirect
	go.uber.org/zap v1.19.0 // indirect
	gocloud.dev v0.24.0 // indirect
	golang.org/x/crypto v0.0.0-20220722155217-630584e8d5aa // indirect
	golang.org/x/exp v0.0.0-20220722155223-a9213eeb770e // indirect
	golang.org/x/exp/typeparams v0.0.0-20220613132600-b0d781184e0d // indirect
	golang.org/x/mod v0.6.0-dev.0.20220419223038-86c51ed26bb4 // indirect
	golang.org/x/net v0.0.0-20220722155237-a158d28d115b // indirect
	golang.org/x/oauth2 v0.0.0-20220622183110-fd043fe589d2 // indirect
	golang.org/x/sync v0.0.0-20220722155255-886fb9371eb4 // indirect
	golang.org/x/sys v0.0.0-20220811171246-fbc7d0a398ab // indirect
	golang.org/x/text v0.3.7 // indirect
	golang.org/x/time v0.0.0-20210723032227-1f47c861a9ac // indirect
	golang.org/x/tools v0.1.12 // indirect
	golang.org/x/xerrors v0.0.0-20220609144429-65e65417b02f // indirect
	google.golang.org/api v0.93.0 // indirect
	google.golang.org/appengine v1.6.7 // indirect
	google.golang.org/genproto v0.0.0-20220815135757-37a418bb8959 // indirect
	google.golang.org/grpc v1.48.0 // indirect
	google.golang.org/protobuf v1.28.1 // indirect
	gopkg.in/alexcesaro/quotedprintable.v3 v3.0.0-20150716171945-2caba252f4dc // indirect
	gopkg.in/ini.v1 v1.66.6 // indirect
	gopkg.in/mail.v2 v2.3.1 // indirect
	gopkg.in/warnings.v0 v0.1.2 // indirect
	gopkg.in/yaml.v2 v2.4.0 // indirect
	gopkg.in/yaml.v3 v3.0.1 // indirect
	honnef.co/go/tools v0.3.3 // indirect
	mvdan.cc/gofumpt v0.3.1 // indirect
	mvdan.cc/interfacer v0.0.0-20180901003855-c20040233aed // indirect
	mvdan.cc/lint v0.0.0-20170908181259-adc824a0674b // indirect
	mvdan.cc/unparam v0.0.0-20220706161116-678bad134442 // indirect
)
